{
  "files": {
    "main.css": "/static/css/main.98b0dd04.css",
    "main.js": "/static/js/main.2244f166.js",
    "static/js/787.680637d7.chunk.js": "/static/js/787.680637d7.chunk.js",
    "index.html": "/index.html",
    "main.98b0dd04.css.map": "/static/css/main.98b0dd04.css.map",
    "main.2244f166.js.map": "/static/js/main.2244f166.js.map",
    "787.680637d7.chunk.js.map": "/static/js/787.680637d7.chunk.js.map"
  },
  "entrypoints": [
    "static/css/main.98b0dd04.css",
    "static/js/main.2244f166.js"
  ]
}